Data Science Dashboard
…
  sample_n(2000) %>% 
  janitor::clean_names() %>% 
   separate(date, into = c("year", "month", "day")) %>% 
  mutate(year = as.integer(year), month = as.integer(month), day = as.integer(day)) %>% 
  mutate(month = month.name[as.integer(month)]) %>% 
  mutate(tmin= as.numeric(tmin)) %>% 
  mutate(tmin = as.numeric(tmin / 10)) %>%
  mutate(tmax= as.numeric(tmax)) %>% 
  mutate(tmax = as.numeric(tmax / 10)) %>%
  mutate(prcp= as.numeric(prcp)) %>% 
  mutate(prcp = as.numeric(prcp / 10)) %>% 
 select(id, year, month, day, prcp, snow, snwd, tmax, tmin)
ny_noaa_tidy2

## # A tibble: 2,000 × 9
##    id           year month       day  prcp  snow  snwd  tmax  tmin
##    <chr>       <int> <chr>     <int> <dbl> <int> <int> <dbl> <dbl>
##  1 USC00304836  2002 September    27   4.8     0     0  NA    NA  
##  2 USC00300183  1984 September    21   0       0     0  19.4   4.4
##  3 USC00307772  2000 April        19   0       0     0  NA    NA  
##  4 USC00305925  1987 May          31   0       0     0  NA    NA  
##  5 USC00300613  1991 August       30   0       0     0  NA    NA  
##  6 US1NYST0003  2009 February      4   0       0   178  NA    NA  
##  7 USC00302129  2004 August        1   0       0     0  30    20  
##  8 USW00094794  2001 June          6   0      NA    NA  20.6   8.9
##  9 USC00308944  1994 November      3   0       0     0   3.3  -3.3
## 10 USC00304996  1989 February      5   0       0    25 -11.7 -21.1
## # … with 1,990 more rows
…
